…
    ## [1] 348749

Hasta acá todo bien, pero luego de haber revisado con mayor detalle me
doy cuenta que existen **MRUN** duplicados por lo que debemos
eliminarlos, ya que existen estudiantes que están siendo contados más de
una vez.

    RUN_duplicados <- desvinculados %>%
      group_by(MRUN) %>%
      filter(n() > 1) %>%
      count()

    print(RUN_duplicados)

    ## # A tibble: 14,885 × 2
    ## # Groups:   MRUN [14,885]
    ##     MRUN     n
    ##    <dbl> <int>
    ##  1  2134     2
    ##  2  2308     2
    ##  3  2538     2
    ##  4  3118     2
    ##  5  4550     2
    ##  6  7508     2
    ##  7  9398     2
    ##  8 10624     2
    ##  9 13859     2
    ## 10 14606     2
    ## # ℹ 14,875 more rows
…
**d) Presente en una tabla una desagregación distinta a por región (a su
elección), indicando el número de estudiantes desvinculados, la
matrícula teórica y la tasa de desvinculación.**

Aplicando la misma lógica anterior, debemos hacerlo pero esta vez con el
nombre del colegio (NOM\_RBD):

    matricula_por_colegio <- matricula_filtrada %>% 
      group_by(NOM_RBD) %>% 
      summarise(alumnos_matriculados = n())

    print(matricula_por_colegio)

    ## # A tibble: 5,132 × 2
    ##    NOM_RBD                          alumnos_matriculados
    ##    <chr>                                           <int>
    ##  1 ABRAHAM LINCOLN MEMORIAL COLLEGE                  229
    ##  2 ABRAHAM LINCOLN SCHOOL                            762
    ##  3 ACADEMIA HOSPICIO                                1429
    ##  4 ACADEMIA NERUDIANA                                166
    ##  5 ACADEMIA POZO ALMONTE                             270
    ##  6 ACONCAGUA EDUCA                                   110
    ##  7 ALBERTO HURTADO CRUCHAGA                          696
    ##  8 ALIANZA ALEMANA EL BELLOTO                        213
    ##  9 ALTOS DEL HUERTO                                  549
    ## 10 AMERICAN COLLEGE                                  587
    ## # ℹ 5,122 more rows

    desvinculados_por_colegio <- desvinculados %>%
      group_by(NOM_RBD) %>%
      summarise(alumnos_desvinculados = n())

    print(desvinculados_por_colegio)

    ## # A tibble: 4,843 × 2
    ##    NOM_RBD                          alumnos_desvinculados
    ##    <chr>                                            <int>
    ##  1 ABRAHAM LINCOLN MEMORIAL COLLEGE                    32
    ##  2 ABRAHAM LINCOLN SCHOOL                              74
    ##  3 ACADEMIA HOSPICIO                                  189
    ##  4 ACADEMIA NERUDIANA                                  35
    ##  5 ACADEMIA POZO ALMONTE                               44
    ##  6 ACONCAGUA EDUCA                                     49
    ##  7 ALBERTO HURTADO CRUCHAGA                            90
    ##  8 ALIANZA ALEMANA EL BELLOTO                          17
    ##  9 ALTOS DEL HUERTO                                    87
    ## 10 AMERICAN COLLEGE                                    64
    ## # ℹ 4,833 more rows

    resultados_por_colegio <- matricula_por_colegio %>%
      left_join(desvinculados_por_colegio, by = "NOM_RBD") %>% 
      mutate(matricula_teorica = alumnos_matriculados + alumnos_desvinculados,
             tasa_desvinculacion = (alumnos_desvinculados / matricula_teorica) * 100)

    print(resultados_por_colegio)

    ## # A tibble: 5,132 × 5
    ##    NOM_RBD                alumnos_matriculados alumnos_desvinculados matricula_teorica tasa_desvinculacion
    ##    <chr>                                 <int>                 <int>             <int>               <dbl>
    ##  1 ABRAHAM LINCOLN MEMOR…                  229                    32               261               12.3 
    ##  2 ABRAHAM LINCOLN SCHOOL                  762                    74               836                8.85
    ##  3 ACADEMIA HOSPICIO                      1429                   189              1618               11.7 
    ##  4 ACADEMIA NERUDIANA                      166                    35               201               17.4 
    ##  5 ACADEMIA POZO ALMONTE                   270                    44               314               14.0 
    ##  6 ACONCAGUA EDUCA                         110                    49               159               30.8 
    ##  7 ALBERTO HURTADO CRUCH…                  696                    90               786               11.5 
    ##  8 ALIANZA ALEMANA EL BE…                  213                    17               230                7.39
    ##  9 ALTOS DEL HUERTO                        549                    87               636               13.7 
    ## 10 AMERICAN COLLEGE                        587                    64               651                9.83
    ## # ℹ 5,122 more rows
